{
    "key": "group_5aba67bd997f6",
    "title": "[Page] Page builder",
    "fields": [
        {
            "key": "field_5aba680fe230f",
            "label": "Sections",
            "name": "bwm_sections",
            "type": "flexible_content",
            "instructions": "",
            "required": 0,
            "conditional_logic": 0,
            "wrapper": {
                "width": "",
                "class": "",
                "id": ""
            },
            "layouts": {
                "5aba7530abb08": {
                    "key": "5aba7530abb08",
                    "name": "bwm_section_homepage_title",
                    "label": "Titre de page d'accueil",
                    "display": "block",
                    "sub_fields": [
                        {
                            "key": "field_5aba77428adcf",
                            "label": "Partie gauche",
                            "name": "",
                            "type": "tab",
                            "instructions": "Deviendra le titre H1",
                            "required": 0,
                            "conditional_logic": 0,
                            "wrapper": {
                                "width": "50",
                                "class": "",
                                "id": ""
                            },
                            "placement": "top",
                            "endpoint": 0
                        },
                        {
                            "key": "field_5aba76e60f405",
                            "label": "Titre du bloc",
                            "name": "bwm_section_homepage_title_text",
                            "type": "text",
                            "instructions": "Deviendra le titre H1",
                            "required": 0,
                            "conditional_logic": 0,
                            "wrapper": {
                                "width": "50",
                                "class": "",
                                "id": ""
                            },
                            "default_value": "",
                            "placeholder": "",
                            "prepend": "",
                            "append": "",
                            "maxlength": ""
                        },
                        {
                            "key": "field_5aba770b0f406",
                            "label": "Sous-titre du bloc",
                            "name": "bwm_section_homepage_title_subtitle",
                            "type": "text",
                            "instructions": "",
                            "required": 0,
                            "conditional_logic": 0,
                            "wrapper": {
                                "width": "50",
                                "class": "",
                                "id": ""
                            },
                            "default_value": "",
                            "placeholder": "",
                            "prepend": "",
                            "append": "",
                            "maxlength": ""
                        },
                        {
                            "key": "field_5aba76ca0f404",
                            "label": "Image bloc gauche",
                            "name": "bwm_section_homepage_title_img",
                            "type": "image",
                            "instructions": "",
                            "required": 0,
                            "conditional_logic": 0,
                            "wrapper": {
                                "width": "50",
                                "class": "",
                                "id": ""
                            },
                            "return_format": "array",
                            "preview_size": "thumbnail",
                            "library": "all",
                            "min_width": "",
                            "min_height": "",
                            "min_size": "",
                            "max_width": "",
                            "max_height": "",
                            "max_size": "",
                            "mime_types": ""
                        },
                        {
                            "key": "field_5aba771d0f407",
                            "label": "Date de l'évènement",
                            "name": "bwm_section_homepage_title_date",
                            "type": "text",
                            "instructions": "",
                            "required": 0,
                            "conditional_logic": 0,
                            "wrapper": {
                                "width": "50",
                                "class": "",
                                "id": ""
                            },
                            "default_value": "",
                            "placeholder": "",
                            "prepend": "",
                            "append": "",
                            "maxlength": ""
                        },
                        {
                            "key": "field_5aba77548add0",
                            "label": "Partie droite",
                            "name": "",
                            "type": "tab",
                            "instructions": "Deviendra le titre H1",
                            "required": 0,
                            "conditional_logic": 0,
                            "wrapper": {
                                "width": "50",
                                "class": "",
                                "id": ""
                            },
                            "placement": "top",
                            "endpoint": 0
                        },
                        {
                            "key": "field_5aba756fabb09",
                            "label": "Bloc promo 1",
                            "name": "bwm_section_homepage_title_promo1_content",
                            "type": "wysiwyg",
                            "instructions": "Bloc en retrait",
                            "required": 0,
                            "conditional_logic": 0,
                            "wrapper": {
                                "width": "50",
                                "class": "",
                                "id": ""
                            },
                            "default_value": "",
                            "tabs": "all",
                            "toolbar": "full",
                            "media_upload": 1,
                            "delay": 0
                        },
                        {
                            "key": "field_5aba75daabb0c",
                            "label": "Bloc promo 2",
                            "name": "bwm_section_homepage_title_promo2_content",
                            "type": "wysiwyg",
                            "instructions": "Bloc au premier plan",
                            "required": 0,
                            "conditional_logic": 0,
                            "wrapper": {
                                "width": "50",
                                "class": "",
                                "id": ""
                            },
                            "default_value": "",
                            "tabs": "all",
                            "toolbar": "full",
                            "media_upload": 1,
                            "delay": 0
                        },
                        {
                            "key": "field_5aba75a8abb0a",
                            "label": "Bloc promo 1 (background)",
                            "name": "bwm_section_homepage_title_promo1_bg",
                            "type": "image",
                            "instructions": "Bloc en retrait",
                            "required": 0,
                            "conditional_logic": 0,
                            "wrapper": {
                                "width": "50",
                                "class": "",
                                "id": ""
                            },
                            "return_format": "array",
                            "preview_size": "thumbnail",
                            "library": "all",
                            "min_width": "",
                            "min_height": "",
                            "min_size": "",
                            "max_width": "",
                            "max_height": "",
                            "max_size": "",
                            "mime_types": ""
                        },
                        {
                            "key": "field_5aba75c3abb0b",
                            "label": "Bloc promo 2 (background)",
                            "name": "bwm_section_homepage_title_promo2_bg",
                            "type": "image",
                            "instructions": "",
                            "required": 0,
                            "conditional_logic": 0,
                            "wrapper": {
                                "width": "50",
                                "class": "",
                                "id": ""
                            },
                            "return_format": "array",
                            "preview_size": "thumbnail",
                            "library": "all",
                            "min_width": "",
                            "min_height": "",
                            "min_size": "",
                            "max_width": "",
                            "max_height": "",
                            "max_size": "",
                            "mime_types": ""
                        }
                    ],
                    "min": "",
                    "max": ""
                },
                "5aba683e926d6": {
                    "key": "5aba683e926d6",
                    "name": "bwm_section_page_title",
                    "label": "Titre de page",
                    "display": "block",
                    "sub_fields": [
                        {
                            "key": "field_5aba6a0b69367",
                            "label": "Titre de la page",
                            "name": "bwm_section_page_title_title",
                            "type": "text",
                            "instructions": "Deviendra le H1 de la page",
                            "required": 0,
                            "conditional_logic": 0,
                            "wrapper": {
                                "width": "50",
                                "class": "",
                                "id": ""
                            },
                            "default_value": "",
                            "placeholder": "",
                            "prepend": "",
                            "append": "",
                            "maxlength": ""
                        },
                        {
                            "key": "field_5aba6a5369369",
                            "label": "Image d'intro",
                            "name": "bwm_section_page_title_img",
                            "type": "image",
                            "instructions": "",
                            "required": 0,
                            "conditional_logic": 0,
                            "wrapper": {
                                "width": "50",
                                "class": "",
                                "id": ""
                            },
                            "return_format": "array",
                            "preview_size": "thumbnail",
                            "library": "all",
                            "min_width": "",
                            "min_height": "",
                            "min_size": "",
                            "max_width": "",
                            "max_height": "",
                            "max_size": "",
                            "mime_types": ""
                        },
                        {
                            "key": "field_5aba6a3b69368",
                            "label": "Texte d'intro",
                            "name": "bwm_section_page_title_intro",
                            "type": "wysiwyg",
                            "instructions": "",
                            "required": 0,
                            "conditional_logic": 0,
                            "wrapper": {
                                "width": "",
                                "class": "",
                                "id": ""
                            },
                            "default_value": "",
                            "tabs": "all",
                            "toolbar": "full",
                            "media_upload": 1,
                            "delay": 0
                        },
                        {
                            "key": "field_5aba6ae19d9d6",
                            "label": "Alignement",
                            "name": "bwm_section_page_title_alignment",
                            "type": "select",
                            "instructions": "",
                            "required": 0,
                            "conditional_logic": 0,
                            "wrapper": {
                                "width": "",
                                "class": "",
                                "id": ""
                            },
                            "choices": {
                                "left": "Image à gauche et texte à droite",
                                "right": "Texte à gauche et image à droite"
                            },
                            "default_value": [],
                            "allow_null": 0,
                            "multiple": 0,
                            "ui": 0,
                            "ajax": 0,
                            "return_format": "value",
                            "placeholder": ""
                        }
                    ],
                    "min": "",
                    "max": ""
                },
                "5aba6ab29d9d2": {
                    "key": "5aba6ab29d9d2",
                    "name": "bwm_section_page_push",
                    "label": "Bloc push",
                    "display": "block",
                    "sub_fields": [
                        {
                            "key": "field_5aba6ab29d9d3",
                            "label": "Image de fond",
                            "name": "bwm_section_page_push_img",
                            "type": "image",
                            "instructions": "",
                            "required": 0,
                            "conditional_logic": 0,
                            "wrapper": {
                                "width": "",
                                "class": "",
                                "id": ""
                            },
                            "return_format": "array",
                            "preview_size": "large",
                            "library": "all",
                            "min_width": "",
                            "min_height": "",
                            "min_size": "",
                            "max_width": "",
                            "max_height": "",
                            "max_size": "",
                            "mime_types": ""
                        },
                        {
                            "key": "field_5aba6ab29d9d4",
                            "label": "Accroche principale",
                            "name": "bwm_section_page_push_message",
                            "type": "text",
                            "instructions": "",
                            "required": 0,
                            "conditional_logic": 0,
                            "wrapper": {
                                "width": "50",
                                "class": "",
                                "id": ""
                            },
                            "default_value": "",
                            "placeholder": "",
                            "prepend": "",
                            "append": "",
                            "maxlength": ""
                        },
                        {
                            "key": "field_5aba6b759d9d7",
                            "label": "Détail texte",
                            "name": "bwm_section_page_push_detail",
                            "type": "textarea",
                            "instructions": "",
                            "required": 0,
                            "conditional_logic": 0,
                            "wrapper": {
                                "width": "50",
                                "class": "",
                                "id": ""
                            },
                            "default_value": "",
                            "placeholder": "",
                            "maxlength": "",
                            "rows": 2,
                            "new_lines": "br"
                        },
                        {
                            "key": "field_5aba6b9b9d9d8",
                            "label": "CTA : texte",
                            "name": "bwm_section_page_push_cta_text",
                            "type": "text",
                            "instructions": "",
                            "required": 0,
                            "conditional_logic": 0,
                            "wrapper": {
                                "width": "50",
                                "class": "",
                                "id": ""
                            },
                            "default_value": "",
                            "placeholder": "",
                            "prepend": "",
                            "append": "",
                            "maxlength": ""
                        },
                        {
                            "key": "field_5aba6bb49d9d9",
                            "label": "CTA : lien",
                            "name": "bwm_section_page_push_cta_link",
                            "type": "url",
                            "instructions": "",
                            "required": 0,
                            "conditional_logic": 0,
                            "wrapper": {
                                "width": "50",
                                "class": "",
                                "id": ""
                            },
                            "default_value": "",
                            "placeholder": ""
                        },
                        {
                            "key": "field_5aba6c40ea418",
                            "label": "Alignement",
                            "name": "bwm_section_page_push_alignment",
                            "type": "select",
                            "instructions": "",
                            "required": 0,
                            "conditional_logic": 0,
                            "wrapper": {
                                "width": "",
                                "class": "",
                                "id": ""
                            },
                            "choices": {
                                "left": "Gauche",
                                "right": "Droite",
                                "center": "Centré"
                            },
                            "default_value": [],
                            "allow_null": 0,
                            "multiple": 0,
                            "ui": 0,
                            "ajax": 0,
                            "return_format": "value",
                            "placeholder": ""
                        }
                    ],
                    "min": "",
                    "max": ""
                },
                "5aba6d0c4d545": {
                    "key": "5aba6d0c4d545",
                    "name": "bwm_section_page_social",
                    "label": "Bloc social",
                    "display": "block",
                    "sub_fields": [
                        {
                            "key": "field_5aba6d1a4d546",
                            "label": "Texte d'accroche du bloc",
                            "name": "bwm_section_page_social_title",
                            "type": "text",
                            "instructions": "",
                            "required": 0,
                            "conditional_logic": 0,
                            "wrapper": {
                                "width": "",
                                "class": "",
                                "id": ""
                            },
                            "default_value": "",
                            "placeholder": "",
                            "prepend": "",
                            "append": "",
                            "maxlength": ""
                        }
                    ],
                    "min": "",
                    "max": ""
                },
                "5aba6d474d547": {
                    "key": "5aba6d474d547",
                    "name": "bwm_section_page_newsletter",
                    "label": "Bloc newsletter",
                    "display": "block",
                    "sub_fields": [
                        {
                            "key": "field_5aba6d474d548",
                            "label": "Texte d'accroche du bloc",
                            "name": "bwm_section_page_newsletter_title",
                            "type": "text",
                            "instructions": "",
                            "required": 0,
                            "conditional_logic": 0,
                            "wrapper": {
                                "width": "50",
                                "class": "",
                                "id": ""
                            },
                            "default_value": "",
                            "placeholder": "",
                            "prepend": "",
                            "append": "",
                            "maxlength": ""
                        },
                        {
                            "key": "field_5aba6d634d549",
                            "label": "Sous-titre",
                            "name": "bwm_section_page_newsletter_subtitle",
                            "type": "text",
                            "instructions": "",
                            "required": 0,
                            "conditional_logic": 0,
                            "wrapper": {
                                "width": "50",
                                "class": "",
                                "id": ""
                            },
                            "default_value": "",
                            "placeholder": "",
                            "prepend": "",
                            "append": "",
                            "maxlength": ""
                        },
                        {
                            "key": "field_5aba6dd74d54a",
                            "label": "Shortcode",
                            "name": "bwm_section_page_newsletter_shortcode",
                            "type": "wysiwyg",
                            "instructions": "",
                            "required": 0,
                            "conditional_logic": 0,
                            "wrapper": {
                                "width": "",
                                "class": "",
                                "id": ""
                            },
                            "default_value": "",
                            "tabs": "all",
                            "toolbar": "full",
                            "media_upload": 1,
                            "delay": 0
                        }
                    ],
                    "min": "",
                    "max": ""
                },
                "5aba6e9f8e1f8": {
                    "key": "5aba6e9f8e1f8",
                    "name": "bwm_section_page_free_content",
                    "label": "Contenu libre",
                    "display": "block",
                    "sub_fields": [
                        {
                            "key": "field_5aba6ecd8e1fa",
                            "label": "Configuration",
                            "name": "bwm_section_page_content_configuration",
                            "type": "select",
                            "instructions": "",
                            "required": 0,
                            "conditional_logic": 0,
                            "wrapper": {
                                "width": "",
                                "class": "",
                                "id": ""
                            },
                            "choices": {
                                "1": "1 colonne",
                                "2": "2 colonnes"
                            },
                            "default_value": [],
                            "allow_null": 0,
                            "multiple": 0,
                            "ui": 0,
                            "ajax": 0,
                            "return_format": "value",
                            "placeholder": ""
                        },
                        {
                            "key": "field_5aba6eab8e1f9",
                            "label": "Contenu colonne 1",
                            "name": "bwm_section_page_content_column1",
                            "type": "wysiwyg",
                            "instructions": "",
                            "required": 0,
                            "conditional_logic": 0,
                            "wrapper": {
                                "width": "",
                                "class": "",
                                "id": ""
                            },
                            "default_value": "",
                            "tabs": "all",
                            "toolbar": "full",
                            "media_upload": 1,
                            "delay": 0
                        },
                        {
                            "key": "field_5aba73a88380e",
                            "label": "Contenu colonne 2",
                            "name": "bwm_section_page_content_column2",
                            "type": "wysiwyg",
                            "instructions": "",
                            "required": 0,
                            "conditional_logic": [
                                [
                                    {
                                        "field": "field_5aba6ecd8e1fa",
                                        "operator": "==",
                                        "value": "2"
                                    }
                                ]
                            ],
                            "wrapper": {
                                "width": "",
                                "class": "",
                                "id": ""
                            },
                            "default_value": "",
                            "tabs": "all",
                            "toolbar": "full",
                            "media_upload": 1,
                            "delay": 0
                        }
                    ],
                    "min": "",
                    "max": ""
                },
                "5aba744296b4e": {
                    "key": "5aba744296b4e",
                    "name": "bwm_section_page_blog_extract",
                    "label": "Extrait de blog",
                    "display": "block",
                    "sub_fields": [
                        {
                            "key": "field_5aba744296b4f",
                            "label": "Titre du bloc",
                            "name": "bwm_section_page_blog_extract_title",
                            "type": "text",
                            "instructions": "",
                            "required": 0,
                            "conditional_logic": 0,
                            "wrapper": {
                                "width": "",
                                "class": "",
                                "id": ""
                            },
                            "default_value": "",
                            "placeholder": "",
                            "prepend": "",
                            "append": "",
                            "maxlength": ""
                        },
                        {
                            "key": "field_5aba746796b52",
                            "label": "Sélection d'articles",
                            "name": "bwm_section_page_blog_extract_posts",
                            "type": "post_object",
                            "instructions": "",
                            "required": 1,
                            "conditional_logic": 0,
                            "wrapper": {
                                "width": "",
                                "class": "",
                                "id": ""
                            },
                            "post_type": [
                                "post"
                            ],
                            "taxonomy": [],
                            "allow_null": 1,
                            "multiple": 1,
                            "return_format": "object",
                            "ui": 1
                        }
                    ],
                    "min": "",
                    "max": ""
                },
                "5acd132f20321": {
                    "key": "5acd132f20321",
                    "name": "bwm_bloc_image_simple",
                    "label": "Bloc image simple",
                    "display": "block",
                    "sub_fields": [
                        {
                            "key": "field_5acd136520322",
                            "label": "Titre du bloc",
                            "name": "bwm_bloc_image_simple_titre_du_bloc",
                            "type": "text",
                            "instructions": "",
                            "required": 1,
                            "conditional_logic": 0,
                            "wrapper": {
                                "width": "",
                                "class": "",
                                "id": ""
                            },
                            "default_value": "",
                            "placeholder": "",
                            "prepend": "",
                            "append": "",
                            "maxlength": ""
                        },
                        {
                            "key": "field_5acd13cc20323",
                            "label": "Sous titre",
                            "name": "bwm_bloc_image_simple_sous_titre",
                            "type": "text",
                            "instructions": "",
                            "required": 0,
                            "conditional_logic": 0,
                            "wrapper": {
                                "width": "",
                                "class": "",
                                "id": ""
                            },
                            "default_value": "",
                            "placeholder": "",
                            "prepend": "",
                            "append": "",
                            "maxlength": ""
                        },
                        {
                            "key": "field_5acd140f20324",
                            "label": "Image",
                            "name": "bwm_bloc_image_simple_image",
                            "type": "image",
                            "instructions": "",
                            "required": 0,
                            "conditional_logic": 0,
                            "wrapper": {
                                "width": "",
                                "class": "",
                                "id": ""
                            },
                            "return_format": "array",
                            "preview_size": "full",
                            "library": "all",
                            "min_width": "",
                            "min_height": "",
                            "min_size": "",
                            "max_width": "",
                            "max_height": "",
                            "max_size": "",
                            "mime_types": ""
                        },
                        {
                            "key": "field_5acd14782816b",
                            "label": "Position image",
                            "name": "bwm_bloc_image_simple_position_image",
                            "type": "radio",
                            "instructions": "",
                            "required": 0,
                            "conditional_logic": 0,
                            "wrapper": {
                                "width": "",
                                "class": "",
                                "id": ""
                            },
                            "choices": {
                                "gauche": "gauche",
                                "droite": "droite"
                            },
                            "allow_null": 0,
                            "other_choice": 0,
                            "save_other_choice": 0,
                            "default_value": "",
                            "layout": "vertical",
                            "return_format": "value"
                        }
                    ],
                    "min": "",
                    "max": ""
                }
            },
            "button_label": "Ajouter une section",
            "min": "",
            "max": ""
        }
    ],
    "location": [
        [
            {
                "param": "post_type",
                "operator": "==",
                "value": "page"
            }
        ]
    ],
    "menu_order": 0,
    "position": "acf_after_title",
    "style": "default",
    "label_placement": "top",
    "instruction_placement": "label",
    "hide_on_screen": [
        "the_content"
    ],
    "active": 1,
    "description": "",
    "modified": 1525157256
}